ARM_System_Syn/ARM_System.vcd
$comment
Copyright (C) 1991-2010 Altera Corporation
Your use of Altera Corporation's design tools, logic functions 
and other software and tools, and its AMPP partner logic 
functions, and any output files from any of the foregoing 
(including device programming or simulation files), and any 
associated documentation or information are expressly subject 
to the terms and conditions of the Altera Program License 
Subscription Agreement, Altera MegaCore Function License 
Agreement, or other applicable license agreement, including, 
without limitation, that your use is for the sole purpose of 
programming logic devices manufactured by Altera and sold by 
Altera or its authorized distributors.  Please refer to the 
applicable agreement for further details.
$end

$date 
  12/03/2020 01:26:03 
$end
$version 
 QUARTUS_VCD_EXPORT 1.0 
$end
$timescale
  1 ps
$end
$scope module ARM_System $end
$var reg 1 ! CLOCK_27 $end
$var reg 1 " KEY[0] $end
$var reg 7 # HEX0[6:0] $end
$var reg 7 $ HEX1[6:0] $end
$var reg 7 % HEX2[6:0] $end
$var reg 7 & HEX3[6:0] $end
$var reg 7 ' HEX4[6:0] $end
$var reg 7 ( HEX5[6:0] $end
$var reg 7 ) HEX6[6:0] $end
$var reg 7 * HEX7[6:0] $end
$scope module arm_cpu $end
$scope module _ALU32bit $end
$var reg 4 + ALUFlags[3:0] $end
$var reg 32 , ALUResult[31:0] $end
$upscope $end
$scope module comb_40 $end
$var reg 32 - ALUResultM[31:0] $end
$var reg 32 . WriteDataM[31:0] $end
$upscope $end
$scope module _Hazard_Unit $end
$var reg 32 / WriteDataE[31:0] $end
$upscope $end
$scope module comb_39 $end
$var reg 4 0 ReadAddr1E[3:0] $end
$upscope $end
$scope module _Instruction_Fetch $end
$var reg 32 1 pc_out[31:0] $end
$var reg 32 2 instD[31:0] $end
$upscope $end
$scope module _MEMWB_Register $end
$var reg 32 3 ReadDataW[31:0] $end
$var reg 4 4 WriteAddrW[3:0] $end
$var reg 32 5 ALUOutW[31:0] $end
$upscope $end
$scope module _RegisterFile $end
$var reg 32 6 data2[31:0] $end
$var reg 32 7 registers[0][31:0] $end
$var reg 32 8 registers[1][31:0] $end
$var reg 32 9 registers[2][31:0] $end
$var reg 32 : registers[3][31:0] $end
$var reg 32 ; registers[9][31:0] $end
$var reg 32 < registers[14][31:0] $end
$var reg 32 = registers[15][31:0] $end
$var reg 32 > data3[31:0] $end
$var reg 32 ? data1[31:0] $end
$upscope $end
$scope module _ctrlSig $end
$scope module _conditional $end
$var reg 1 @ MemWrite $end
$upscope $end
$scope module _decoder $end
$var reg 4 A ALUOp[3:0] $end
$var reg 1 B ALUSrc $end
$var reg 2 C ImmSrc[1:0] $end
$var reg 1 D Svalue $end
$upscope $end
$upscope $end
$upscope $end
$scope module Inst_Data_Mem $end
$scope module altsyncram_component $end
$scope module auto_generated $end
$var reg 32 E q_a[31:0] $end
$var reg 32 F q_b[31:0] $end
$upscope $end
$upscope $end
$upscope $end
$upscope $end
$enddefinitions $end
#0
$dumpvars
0!
0"
b0 #
b0 $
b0 %
b0 &
b0 '
b0 (
b0 )
b0 *
bX +
bX ,
b0 -
b0 .
bX /
b0 0
b0 1
b0 2
b0 3
b0 4
b0 5
b0 6
b0 7
b0 8
b0 9
b0 :
b0 ;
b0 <
b0 =
b0 >
b0 ?
0@
b0 A
0B
b0 C
0D
b0 E
b0 F
$end
#40000
1"
bX +
#50000
1!
bX +
#100000
0!
bX +
#150000
1!
bX +
#200000
0!
bX +
#250000
1!
bX +
#300000
0!
bX +
#350000
1!
bX +
#400000
0!
bX +
#450000
1!
bX +
#458858
bX +
b100000000000000000000000000000 E
#458873
bX +
b100010000000000000000000000000 E
#458880
bX +
b100010000000000000000000000100 E
#458882
bX +
b101010000000000000000000000100 E
#458885
bX +
b10101010000000000000000000000100 E
#458887
bX +
b11101010000000000000000000000100 E
#458888
bX +
b11101010000000000000000000000110 E
#500000
0!
bX +
#503514
bX +
b100000000000000000000000000000 F
#503529
bX +
b100010000000000000000000000000 F
#503536
bX +
b100010000000000000000000000100 F
#503538
bX +
b101010000000000000000000000100 F
#503541
bX +
b10101010000000000000000000000100 F
#503543
bX +
b11101010000000000000000000000100 F
#503544
bX +
b11101010000000000000000000000110 F
#503911
b1000000 $
bX +
#503933
b1000000 %
bX +
#504014
b1000000 #
bX +
#505009
b1000000 '
bX +
#505015
b1000000 )
bX +
#505269
b1000000 &
bX +
#505589
b1000000 (
bX +
#505626
b1000000 *
bX +
#550000
1!
bX +
#600000
0!
bX +
#625453
bX +
b11100000000000000000000000000000 2
#625461
bX +
b0XXX00000000XXXXX0000000000000 -
#625463
bX +
b0XXX00000000XXXXX00000XX0000XX -
#625464
bX +
b0X .
#625468
bX +
b0XXX00000000XXXXX0X000XXX000XX -
#625473
bX +
b0XXX000000X0XXXXX0X000XXX000XX -
#625475
bX +
b0XXX0000X0X0XXXXX0X000XXX000XX -
#625480
bX +
b0XXX00X0X0X0XXXXX0X000XXX000XX -
#625481
bX +
b0XX .
#625482
bX +
b0XXX00X0X0X0XXXXX0X0X0XXX000XX -
b0X0000000XX .
b100 1
#625483
bX +
b0XXX00X0X0X0XXXXX0X0X0XXX00XXX -
#625484
bX +
b0XXX00X0X0X0XXXXX0X0X0XXXX0XXX -
b0X0000X00XX .
#625485
bX +
b0XXX00X0X0X0XXXXXXXXX0XXXXXXXX -
b0XX0X00X00XX .
b11101010000000000000000000000110 2
#625487
bX +
b0XXXX0X0X0X0XXXXXXXXX0XXXXXXXX -
b0X000000000000000XX0X00X00XX .
#625489
bX +
b0X0XXXX0X0X0X0XXXXXXXXX0XXXXXXXX -
b0X000X000000000000000XX0X00X00XX .
b11000000000000000000000000000000 3
#625490
bX +
b0XXXXXX0X0X0XXXXXXXXXXXXXXXXXXXX -
b0XX00X0000000XX000000XXXX00X00XX .
b11100000000000000000000000000000 3
#625491
bX +
b0XX00X00X0000XX000000XXXX00X00XX .
#625492
bX +
b0XX0XX00X0000XX000000XXXX00X00XX .
b11101000000000000000000000000000 3
#625494
bX +
b0XX0XX00X0000XX0000X0XXXX00X00XX .
#625495
bX +
b0XX0XX00X000XXXXXX0X0XXXX00X00XX .
#625496
bX +
b0XXXXXX0X0XXXXXXXXXXXXXXXXXXXXXX -
b0XX0XX00X00XXXXXXX0XXXXXX00X00XX .
#625497
bX +
bX0XXXXXXXXXXXXXXXXXXXXXXXX -
bX0XX00XXXXXXXXXX0XXXXXX00X00XX .
b11101000000000000000000000000110 3
#625500
bX +
bX -
bX0XX0XXXXXXXXXXX0XXXXXX00X00XX .
b11101010000000000000000000000110 3
#625501
bX +
bX0XXXXXXXXXXX0XXXXXX00X00XX .
#625503
bX +
bX0XXXXXXXXXXX0XXXXXXX0X00XX .
#625504
bX +
bX0XXXXXXXXXXX0XXXXXXX0XX0XX .
#625505
bX +
bX0XXXXXXXXXXXXXXXXXXX0XX0XX .
#625506
bX +
bX0XXXXXXXXXXXXXXXXXXX0XXXXX .
#625507
bX +
bX0XXXXXXXXXXXXXXXXXXXXXXXXX .
#625508
bX +
bX .
#626418
bX +
b10 C
#626771
bX +
b100 A
#627126
bX +
1B
#650000
1!
bX +
#653496
bX +
b11101010000011000000000000000110 E
#653500
bX +
b11101010000011000000011000000110 E
#653502
bX +
b11101010110011000000011000000110 E
#653505
bX +
b11101010110011000001111000000110 E
#653506
bX +
b11101010110011001101111000000110 E
#653508
bX +
b11101010111111111101111000000110 E
#653510
bX +
b11101010111111111101111000001110 E
#653515
bX +
b11101010111111111111111000001110 E
#653517
bX +
b11101010111111111111111110011110 E
#653519
bX +
b11101010111111111111111111111110 E
#700000
0!
bX +
#725463
bX +
b0X 5
#725473
bX +
b100 =
#725480
bX +
b0X0000000000000000X 5
b100 <
#725481
bX +
b0X00000XXX00000000X 5
#725482
bX +
b100000 1
b11101011101000000000000000000110 2
#725483
bX +
b1110101000000000000000000000X110 3
#725485
bX +
b11100001101000000000000000000000 2
#725487
bX +
b111010100000000000000XX00000X110 3
b0X00000000X00000XXX00000000X 5
#725489
bX +
bX1010100000000000000XX00000X110 3
b0X000X00000000X00000XXX00000000X 5
#725490
bX +
bX101000000XX00000XXX00000X110 3
b0XX00X0000000XX00000XXXX0000000X 5
#725491
bX +
bX1010XX000XX00000XXX00000X110 3
b0XX00X00XX000XX00000XXXX0000000X 5
#725492
bX +
bX10XX000XX00000XXX00000X110 3
b0XX0XX00XX000XX00000XXXX0000000X 5
#725494
bX +
bX10XX000XX000XXXXX00000X110 3
b0XX0XX00XX000XX0000XXXXX0000000X 5
#725495
bX +
bX10XX00XXXX00XXXXX00000X110 3
b0XX0XX00XX00XXXX000XXXXX0000000X 5
#725496
bX +
bX10XXXXXXXX00XXXXX00000X110 3
b0XX0XX00XXXXXXXX000XXXXX0000000X 5
#725497
bX +
bX10XXXXXXXX00XXXXX00000XXX0 3
bX0XX00XXXXXXXX000XXXXX00000XXX 5
#725498
bX +
bX10XXXXXXXX00XXXXX00000XXXX 3
#725499
bX +
bX10XXXXXXXXXXXXXXXX00XXXXXX 3
bX0XXX0XXXXXXXXXX0XXXXXX0X00XXX 5
#725500
bX +
bX00XXXXXX 3
bX0XXXXXXXXXXXXXX0XXXXXX0X00XXX 5
#725501
bX +
bX0XXXXXX0X00XXX 5
#725503
bX +
bX 3
bX0XXXXXXXX00XXX 5
#725505
bX +
bX00XXX 5
#725511
bX +
bX 5
#726418
bX +
b0 C
#726771
bX +
b0 A
#727502
bX +
0B
#727606
bX +
b1 A
#727996
bX +
b101 A
#728200
bX +
b1101 A
#750000
1!
bX +
#753502
bX +
b11101010101111111111111111111110 E
#753503
bX +
b11101001101111111111111111111110 E
#753505
bX +
b11101001101111111110111111111110 E
#753506
bX +
b11101001101111110010111111111110 E
#753508
bX +
b11101001100111110010111111111110 E
#753510
bX +
b11101001100111110010111111111010 E
#753512
bX +
b11100101100111110010111111111010 E
#753517
bX +
b11100101100111110010111011101010 E
#753518
bX +
b11100101100111110010111011101000 E
#753519
bX +
b11100101100111110010111011001000 E
#775487
bX +
b1000 ?
#800000
0!
bX +
#825473
bX +
b0 =
#825478
bX +
b11100001101000000010000000000000 2
#825482
bX +
b100100 1
b11100001100000000010110011000000 2
#825485
bX +
b11100101100111110010110011001000 2
#825496
bX +
b11100101100111110010111011001000 2
#825507
bX +
b100000 =
#826778
bX +
bX0XXXXXXXXXXXXXXXXX ,
#827094
bX +
b1100 A
#827329
bX +
b0XXXXXXXXXXXXX0XXXXXXXXXXXXXXXXX ,
#827358
bX +
b0X0XXXXXXXXXXX0XXXXXXXXXXXXXXXXX ,
#827414
bX +
b0X0XXXXX0XXXXX0XXXXXXXXXXXXXXXXX ,
#827420
bX +
b0X0XXXX00XXXXX0XXXXXXXXXXXXXXXXX ,
#827446
bX +
b0X0XXXX00XXXXX0XXXXX0XXXXXXXXXXX ,
#827465
bX +
b0XXXX00XXXXX0XXXXX0XXXXXXXXXXX ,
#827509
bX +
b0XXXX00XXXXX0XXXXX0XXXXX0XXXXX ,
#827514
bX +
b1 C
#827518
bX +
b0XXXX00XXXXX0XXXXX0XXXX00XXXXX ,
#827586
bX +
b0XXXX00XXX0X0XXXXX0XXXX00XXXXX ,
#827597
bX +
b0XXXX00XX00X0XXXXX0XXXX00XXXXX ,
#827638
bX +
b0XX0X00XX00X0XXXXX0XXXX00XXXXX ,
#827665
bX +
b0X00X00XX00X0XXXXX0XXXX00XXXXX ,
#827701
bX +
b0X00X00XX00X0XXXXX0XXXX00XXX0X ,
#827711
bX +
b0X00X000X00X0XXXXX0XXXX00XXX0X ,
#827725
bX +
b0X00X000000X0XXXXX0XXXX00XXX0X ,
#827727
bX +
b0X00X000000X0X0XXX0XXXX00XXX0X ,
#827729
bX +
b0X000000X0X0XXX0XXXX00XXX0X ,
#827752
bX +
b0X000000X0X0XXX0XXX000XXX0X ,
#827779
bX +
b0X000000X000XXX0XXX000XXX0X ,
#827806
bX +
b0X0000000000XXX0XXX000XXX0X ,
#827859
bX +
b0X0000000000XXX0XXX000XXX00 ,
#827864
bX +
b0X0000000000XXX0XXX000XX000 ,
#828003
bX +
1B
#828022
bX +
b0X0000000000XXX0XX0000XX000 ,
#828050
bX +
b0XXX0XX0000XX000 ,
#828225
bX +
b0XX0XX0000XX000 ,
#828232
bX +
b0X0XX0000XX000 ,
#828236
bX +
b0X0XX00001X000 ,
#828368
bX +
b0X00X00001X000 ,
#828411
bX +
b100 A
#828490
bX +
b0X00001X000 ,
#828493
bX +
b0X00000000000000X00001X000 ,
#828583
bX +
b0X00000000000000X000010000 ,
#828591
bX +
b0X00000000000000X000010X00 ,
#828609
bX +
b0XX0000000000000X000010X00 ,
#828652
bX +
b0XX0000000000000X0000X0X00 ,
#828804
bX +
b0XXX000000000000X0000X0X00 ,
#828871
bX +
b0XXX00000000000XX0000X0X00 ,
#828927
bX +
b0XXXX0000000000XX0000X0X00 ,
#828941
bX +
b0XXXX0000000000XX00X0X0X00 ,
#828981
bX +
b0XXXX0000000000XX00X0X0000 ,
#829016
bX +
b0XXXX0000000000X000X0X0000 ,
#829032
bX +
bX000000XXXX0000000000X000X0X0000 ,
#829215
bX +
bX000000XXXX00000000000000X0X0000 ,
#829228
bX +
bX000000XXXX00000000000000XXX0000 ,
#829266
bX +
bX000000XXXX00000000000000XXX00X0 ,
#829311
bX +
bX000000XXXX000000000X0000XXX00X0 ,
#829337
bX +
bX000000XXXX000000000X0X00XXX00X0 ,
#829415
bX +
b0XXXX000000000X0X00XXX00X0 ,
#829486
bX +
b0XXXX000000000X0X01XXX00X0 ,
#829491
bX +
b0XXXX000000X00X0X01XXX00X0 ,
#829557
bX +
b0XXXX000000X00X0X010XX00X0 ,
#829594
bX +
b0X0XXXX000000X00X0X010XX00X0 ,
#829651
bX +
b0X0XXXX000000X00X00010XX00X0 ,
#829667
bX +
b0X0XXXX000000XX0X00010XX00X0 ,
#829703
bX +
b0X0XXXX000000XX0X00010X000X0 ,
#829743
bX +
b0X0XXXX000000XX0X00010X000XX ,
#829819
bX +
b0X0XXXX000000XX0X00010X0000X ,
#829849
bX +
b0X0XXXX00000XXX0X00010X0000X ,
#829857
bX +
b0X0XXXX00000XXX0X00000X0000X ,
#829927
bX +
b0X0XXXXX0000XXX0X00000X0000X ,
#830068
bX +
b0X0XXXXXX000XXX0X00000X0000X ,
#830099
bX +
b0X0XXX1XX000XXX0X00000X0000X ,
#830100
bX +
b0X0XXX1XX000XXX0X00000X00000 ,
#830113
bX +
b0X0XXX1XX000XXX0X0000XX00000 ,
#830121
bX +
b0X0XXX1XX000XXX0X0000X000000 ,
#830138
bX +
b0X0XXX1XX000X0X0X0000X000000 ,
#830148
bX +
b0X0XXX1XX000X0X0X0000X00X000 ,
#830302
bX +
b0X0XXX1XX00000X0X0000X00X000 ,
#830319
bX +
b0X0XXX1XX0000000X0000X00X000 ,
#830360
bX +
b0X0XXX10X0000000X0000X00X000 ,
#830369
bX +
b0XXX10X0000000X0000X00X000 ,
#830400
bX +
b0XXX10X0000000X0000XX0X000 ,
#830438
bX +
b0XXX10X0000000X0000XX0X0X0 ,
#830440
bX +
b0XXX10X0000000X000XXX0X0X0 ,
#830464
bX +
b0X1X10X0000000X000XXX0X0X0 ,
#830502
bX +
b0X1X1000000000X000XXX0X0X0 ,
#830511
bX +
b0X1X1000000000X000X0X0X0X0 ,
#830546
bX +
b0X1X1000000000X000X0X0X1X0 ,
#830558
bX +
b0X1X10000X0000X000X0X0X1X0 ,
#830603
bX +
b0X1X10000X000XX000X0X0X1X0 ,
#830626
bX +
b1X10000X000XX000X0X0X1X0 ,
#830663
bX +
b1X10000X0X0XX000X0X0X1X0 ,
#830724
bX +
b1X10000X0X0XX000X010X1X0 ,
#830739
bX +
b0X10000X0X0XX000X010X1X0 ,
#830766
bX +
b0X000X10000X0X0XX000X010X1X0 ,
#830773
bX +
b0X000X10000X0X0XX000X010X100 ,
#830780
bX +
b0X000X10000X0X0XXX00X010X100 ,
#830839
bX +
b0X000X10000X0X1XXX00X010X100 ,
#830844
bX +
b0X000X10000X0X1X1X00X010X100 ,
#830948
bX +
b0X000010000X0X1X1X00X010X100 ,
#831009
bX +
b0X00001000000X1X1X00X010X100 ,
#831067
bX +
b0X00000000000X1X1X00X010X100 ,
#831075
bX +
b0X00000000000X1X1X00X000X100 ,
#831092
bX +
b0X0000000000001X1X00X000X100 ,
#831192
bX +
b0X0000000000001X1X00X000XX00 ,
#831216
bX +
b0X0000000000001X1XX0X000XX00 ,
#831230
bX +
b10000X0000000000001X1XX0X000XX00 ,
#831237
bX +
b10000X0X00000000001X1XX0X000XX00 ,
#831243
bX +
b10000X0X00000010001X1XX0X000XX00 ,
#831252
bX +
b10000XXX00000010001X1XX0X000XX00 ,
#831268
bX +
b10000XXX00000010001X1XX0X00XXX00 ,
#831273
bX +
b10000XXX00000010000X1XX0X00XXX00 ,
#831323
bX +
b100000XX00000010000X1XX0X00XXX00 ,
#831350
bX +
b100000XXX0000010000X1XX0X00XXX00 ,
#831366
bX +
b100000XXX0000010000X1XX0XX0XXX00 ,
#831384
bX +
b100000XXX0000010000X1XX0XX0XXX10 ,
#831400
bX +
b100000XXX0000110000X1XX0XX0XXX10 ,
#831454
bX +
b100000XXX0000110000X0XX0XX0XXX10 ,
#831559
bX +
b100000XXXX000110000X0XX0XX0XXX10 ,
#831665
bX +
b100000XXXX000110000X0XX0XX0XXX1X ,
#831678
bX +
b100000XXXXX00110000X0XX0XX0XXX1X ,
#831686
bX +
b100000XXXXX00110000X0XX0XXXXXX1X ,
#831703
bX +
b100000XXXXX00110010X0XX0XXXXXX1X ,
#831838
bX +
bX00000XXXXX00110010X0XX0XXXXXX1X ,
#831841
bX +
bX00000XXXXX00110010X0XX0XXXXXXXX ,
#831851
bX +
bX00000XXXXX001X0010X0XX0XXXXXXXX ,
#831867
bX +
bX00000XXXXX001X0110X0XX0XXXXXXXX ,
#831876
bX +
bX00000XXXXX001X0110X0XX01XXXXXXX ,
#831884
bX +
bX00000XXXXX001X011XX0XX01XXXXXXX ,
#831925
bX +
bX00000XXXXXX01X011XX0XX01XXXXXXX ,
#831966
bX +
bX00000XXXX1X01X011XX0XX01XXXXXXX ,
#832008
bX +
bX00000XXXX1X0XX011XX0XX01XXXXXXX ,
#832013
bX +
bX00000XXXX1X0XX011X10XX01XXXXXXX ,
#832065
bX +
bX00000XXXX1X0XX011X1XXX01XXXXXXX ,
#832067
bX +
bX00000XXXX1XXXX011X1XXX01XXXXXXX ,
#832090
bX +
bX0000XXXXX1XXXX011X1XXX01XXXXXXX ,
#832179
bX +
bX0000XXXXX1XXXX01111XXX01XXXXXXX ,
#832214
bX +
bX0000XXXXX1XXXX01X11XXX01XXXXXXX ,
#832403
bX +
bX0000XXXXX1XXXX0XX11XXX01XXXXXXX ,
#832435
bX +
bX0000XXXXX1XXXX0XX10XXX01XXXXXXX ,
#832484
bX +
bX0000XXXXX1XXXX0XX10XXX0XXXXXXXX ,
#832568
bX +
bX0000XXXXX1XXXXXXX10XXX0XXXXXXXX ,
#832574
bX +
bX0000XXXXXXXXXXXXX10XXX0XXXXXXXX ,
#832710
bX +
bX1000XXXXXXXXXXXXX10XXX0XXXXXXXX ,
#832787
bX +
bX1000XXXXXXXXXXXXXX0XXX0XXXXXXXX ,
#833046
bX +
bX1000XXXXXXXXXXXXXXXXXX0XXXXXXXX ,
#833091
bX +
bX1010XXXXXXXXXXXXXXXXXX0XXXXXXXX ,
#833318
bX +
bX010XXXXXXXXXXXXXXXXXX0XXXXXXXX ,
#833910
bX +
bX110XXXXXXXXXXXXXXXXXX0XXXXXXXX ,
#834030
bX +
bX11XXXXXXXXXXXXXXXXXXX0XXXXXXXX ,
#834198
bX +
bX1XXXXXXXXXXXXXXXXXXXX0XXXXXXXX ,
#834610
bX +
bX0XXXXXXXX ,
#835176
bX +
bX ,
#835197
bX +
bX1XXXXXXXXXXXXXXXXXXXXXXXXXXXX ,
#835805
bX +
bX ,
#850000
1!
bX +
#853496
bX +
b11100101100100110010111011001000 E
#853500
bX +
b11100101100100110010100011001000 E
#853503
bX +
b11100111100100110010100011001000 E
#853505
bX +
b11100111100100110010000011001000 E
#853508
bX +
b11100111101000000010000011001000 E
#853510
bX +
b11100111101000000010000011000000 E
#853512
bX +
b11100011101000000010000011000000 E
#853515
bX +
b11100011101000000000000011000000 E
#853517
bX +
b11100011101000000000000001000000 E
#875487
bX +
b0 ?
#900000
0!
bX +
#925473
bX +
b100100 =
#925478
bX +
b11100101100111110000111011001000 2
#925482
bX +
b101000 1
b11100101101111110000001001001000 2
#925483
bX +
b1111 0
#925485
bX +
b11100011101000000000001001000000 2
#925496
bX +
b11100011101000000000000001000000 2
#927126
bX +
0B
#927514
bX +
b0 C
#927606
bX +
b101 A
#928003
bX +
1B
#928411
bX +
b1101 A
#931626
bX +
bX0 ,
#931704
bX +
bX0XXXXXXXXXXXXXXXXXXXX0 ,
#931869
bX +
bX00XXXXXXXXXXXXXXXXXXXX0 ,
#931918
bX +
bX0XX00XXXXXXXXXXXXXXXXXXXX0 ,
#931955
bX +
bX0XX00XXXXXXXXXXXXXXX0XXXX0 ,
#931963
bX +
b0XXXXX0XX00XXXXXXXXXXXXXXX0XXXX0 ,
#931986
bX +
b0XXXXX00X00XXXXXXXXXXXXXXX0XXXX0 ,
#931996
bX +
b0XXXX000X00XXXXXXXXXXXXXXX0XXXX0 ,
#932062
bX +
b0XXXX000000XXXXXXXXXXXXXXX0XXXX0 ,
#932081
bX +
b0XXXX000000X1XXXXXXXXXXXXX0XXXX0 ,
#932087
bX +
b0XXXX000000X1XXXXXXXXXXXX10XXXX0 ,
#932358
bX +
b0XX0X000000X1XXXXXXXXXXXX10XXXX0 ,
#932399
bX +
b0XX0X000000X1XXXXXXXXXXXX10X1XX0 ,
#932442
bX +
b0XX0X000000X1XXXXXXXXXXX110X1XX0 ,
#932482
bX +
b0XX0X000000X0XXXXXXXXXXX110X1XX0 ,
#932499
bX +
b0XX0X000000X0XXXXXXX1XXX110X1XX0 ,
#932564
bX +
b0XX0X000000X0XXXXXXX1XXX11001XX0 ,
#932579
bX +
b0XX0X000000X0XXXXXXX1XXX110010X0 ,
#932601
bX +
b0XX0X00000000XXXXXXX1XXX110010X0 ,
#932839
bX +
b0X0X00000000XXXXXXX1XXX110010X0 ,
#932851
bX +
b0X00000000XXXXXXX1XXX110010X0 ,
#932943
bX +
b0X00000000XXX0XXX1XXX110010X0 ,
#933022
bX +
b0X00000000XXX0X0X1XXX110010X0 ,
#933054
bX +
b0X00000000XXX0X0X11XX110010X0 ,
#933245
bX +
b0X00000000XXX0X0X11X1110010X0 ,
#933279
bX +
b0X00000000XXX000X11X1110010X0 ,
#933290
bX +
b0X000000000XX000X11X1110010X0 ,
#933348
bX +
b1000000000XX000X11X1110010X0 ,
#933456
bX +
b1000000000X0000X11X1110010X0 ,
#933534
bX +
b1000000000X0000X11X111001000 ,
#933605
bX +
b1000000000X0000011X111001000 ,
#933686
bX +
b1000000000X00000111111001000 ,
#933748
bX +
b1000000000000000111111001000 ,
#934029
bX +
b111111001000 ,
#935153
bX +
b111011001000 ,
#950000
1!
bX +
#953503
bX +
b11100001101000000000000001000000 E
#953508
bX +
b11100001100000100000000001000000 E
#953512
bX +
b11100101100000100000000001000000 E
#953517
bX +
b11100101100000100000000001010000 E
#953519
bX +
b11100101100000100000000000010000 E
#975486
bX +
b100000 ?
#975487
bX +
b101000 ?
#979765
bX +
b111011101000 ,
#979772
bX +
b111011100000 ,
#980252
bX +
b111011110000 ,
#1000000
0!
bX +
#1025461
bX +
bX000XXXXXXXX00000XXXXXXXXXXXXX -
#1025463
bX +
bX000XXXXXXXX00000XXXXX11XXXX00 -
#1025468
bX +
bX000XXXXXXXX00000X1XXX111XXX00 -
#1025473
bX +
bX000XXXXXX0X00000X1XXX111XXX00 -
b101000 =
#1025475
bX +
bX000XXXX0X0X00000X1XXX111XXX00 -
#1025480
bX +
bX000XX0X0X0X00000X1XXX111XXX00 -
#1025482
bX +
bX000XX0X0X0X00000X1X1X111XXX00 -
b101100 1
b11100011100000000000000000010000 2
#1025483
bX +
bX000XX0X0X0X00000X1X1X111XX000 -
b0 0
#1025484
bX +
bX000XX0X0X0X00000X1X1X1111X000 -
#1025485
bX +
bX000XX0X0X0X000000111X11110000 -
b11100101100000100000000000010000 2
#1025487
bX +
bX0000X0X0X0X000000111X11110000 -
#1025489
bX +
bX0X0000X0X0X0X000000111X11110000 -
#1025490
bX +
bX000000X0X0X00000000111011110000 -
#1025496
bX +
bX000000X0X0000000000111011110000 -
#1025497
bX +
b0X000000000000111011110000 -
#1025500
bX +
b111011110000 -
#1027094
bX +
b1100 A
#1027126
bX +
0B
#1027509
bX +
b111011010000 ,
#1027514
bX +
b1 C
#1027887
bX +
b111011011000 ,
#1027957
bX +
1@
#1028003
bX +
1B
#1028236
bX +
b111011001000 ,
#1028368
bX +
b101011001000 ,
#1028411
bX +
b100 A
#1028651
bX +
b1011001000 ,
#1028811
bX +
b1001001000 ,
#1028832
bX +
b1001000000 ,
#1029016
bX +
b1000000 ,
#1050000
1!
bX +
#1053510
bX +
b11100101100000100000000000010100 E
#1075486
bX +
b1000 ?
#1075487
bX +
b0 ?
#1100000
0!
bX +
#1103514
bX +
b11111010000000000000000000000110 F
#1103522
bX +
b11111010000011000000000000000110 F
#1103528
bX +
b11111010110011000000000000000110 F
#1103529
bX +
b11111011110011000000000000000110 F
#1103534
bX +
b11111011111111110000000000000110 F
#1103536
bX +
b11111011111111110000000000000010 F
#1103538
bX +
b11111111111111110000000000000010 F
#1103541
bX +
b11111111111111110010000000000010 F
#1103544
bX +
b11111111111111110010000000000000 F
#1125463
bX +
b111001110000 -
bX0 5
#1125468
bX +
b11001010000 -
#1125473
bX +
b101100 =
#1125477
bX +
b0X000000000000000X0X00000000 7
#1125480
bX +
bX0XXXXXXXXXXXXXXXX0 5
#1125481
bX +
bX0XXXXX111XXXXXXXX0 5
#1125482
bX +
b10001010000 -
b110000 1
#1125483
bX +
b10 0
bX0XXX 3
#1125484
bX +
b10001000000 -
#1125485
bX +
b1000000 -
b11100101100000100000000000010100 2
#1125487
bX +
bX00XXXXX0XXX 3
bX0XXXXXXXX0XXXXX111XXXXXXXX0 5
#1125489
bX +
b11XXXXXXXXXXXXXXXXXXX00XXXXX0XXX 3
bX0XXX0XXXXXXXX0XXXXX111XXXXXXXX0 5
#1125490
bX +
b1111XXXXXXXXX11XXXXX000XXXXX0XXX 3
bX00XX0XXXXXXX00XXXXX1110XXXXXXX0 5
#1125491
bX +
b1111XXXX11XXX11XXXXX000XXXXX0XXX 3
bX00XX0XX00XXX00XXXXX1110XXXXXXX0 5
#1125492
bX +
b111111XX11XXX11XXXXX000XXXXX0XXX 3
bX00X00XX00XXX00XXXXX1110XXXXXXX0 5
#1125494
bX +
b111111XX11XXX11XXX10000XXXXX0XXX 3
bX00X00XX00XXX00XXXX01110XXXXXXX0 5
#1125495
bX +
b111111XX11XX1111XX10000XXXXX0XXX 3
bX00X00XX00XX0000XXX01110XXXXXXX0 5
#1125496
bX +
b111111XX11111111XX10000XXXXX0XXX 3
bX00X00XX00000000XXX01110XXXXXXX0 5
#1125497
bX +
b111111XX11111111XX10000XXXXX000X 3
b0X00XX00000000XXX01110XXXXX000 5
#1125498
bX +
b111111XX11111111XX10000XXXXX0000 3
#1125499
bX +
b111111XX1111111100100000XX000000 3
b0X000X0000000000X011101X1XX000 5
#1125500
bX +
b111111111111111100100000XX000000 3
b0X00000000000000X011101X1XX000 5
#1125501
bX +
b0X011101X1XX000 5
b0X000000X000X0000X0X00000000 7
#1125503
bX +
b11111111111111110010000000000000 3
b0X01110111XX000 5
b0X00000XX000X0000X0X00000000 7
#1125504
bX +
b0XX00000XX000X0000X0X00000000 7
#1125505
bX +
b1110111XX000 5
b0XXX0000XX000X0000X0X00000000 7
#1125506
bX +
b0X00XXXX0X0XXX00X0000X0X0X0X0000 7
#1125509
bX +
b10 4
b0XX0XXXXXX0XXXX0X0000XXX0X0XX000 7
#1125511
bX +
b111011110000 5
b0XX0XXXXXX0XXXX0X000XXXX0X0XX000 7
#1125512
bX +
bX0XXXXXX0XXXX0X0X0XXXX0X0XX0X0 7
#1125513
bX +
bX 7
#1126778
bX +
b0X00000000001000000 ,
#1127329
bX +
bX0000000000000X00000000001000000 ,
#1127358
bX +
bX0X00000000000X00000000001000000 ,
#1127414
bX +
bX0X00000X00000X00000000001000000 ,
#1127420
bX +
bX0X0000XX00000X00000000001000000 ,
#1127446
bX +
bX0X0000XX00000X00000X00001000000 ,
#1127465
bX +
bX0000XX00000X00000X00001000000 ,
#1127509
bX +
bX0000XX00000X00000X00001X00000 ,
#1127518
bX +
bX0000XX00000X00000X0000XX00000 ,
#1127586
bX +
bX0000XX000X0X00000X0000XX00000 ,
#1127597
bX +
bX0000XX00XX0X00000X0000XX00000 ,
#1127638
bX +
bX00X0XX00XX0X00000X0000XX00000 ,
#1127665
bX +
bX0XX0XX00XX0X00000X0000XX00000 ,
#1127701
bX +
bX0XX0XX00XX0X00000X0000XX000X0 ,
#1127711
bX +
bX0XX0XXX0XX0X00000X0000XX000X0 ,
#1127725
bX +
bX0XX0XXXXXX0X00000X0000XX000X0 ,
#1127727
bX +
bX0XX0XXXXXX0X0X000X0000XX000X0 ,
#1127729
bX +
bX0XXXXXX0X0X000X0000XX000X0 ,
#1127752
bX +
bX0XXXXXX0X0X000X000XXX000X0 ,
#1127779
bX +
bX0XXXXXX0XXX000X000XXX000X0 ,
#1127806
bX +
bX0XXXXXXXXXX000X000XXX000X0 ,
#1127859
bX +
bX0XXXXXXXXXX000X000XXX000XX ,
#1127864
bX +
bX0XXXXXXXXXX000X000XXX00XXX ,
#1127887
bX +
bX0XXXXXXXXXX000X000XXX0XXXX ,
#1128022
bX +
bX0XXXXXXXXXX000X00XXXX0XXXX ,
